{
  "solo_schema":{
                  "version" : "0.0.1",
                  "date" : "25/08/2016"
                },

"effect_info":{
                "name" : "WAVE",
                "version" : "1.0"
              },

"filters":[
          {
            "outputName": "Filter1",
            "type": "GPUImageHueFilter",
            "input": ["SoloMovie"],
            "params":{
                        "value": 90.0,
                        "min": 0.0,
                        "max": 360.0,
                      }
          },

          {
            "outputName": "Filter2",
            "type": "GPUImageGrayScaleFilter",
            "input": ["SoloMovie"],
            "params":{
                        "value": 1.0,
                        "min": 0.0,
                        "max": 1.0,
                      }
          },

          {
            "outputName": "SoloResult",
            "type": "SoloFilter",
            "input": ["SoloMovie","SoloMovieMask","Filter1","Filter2"],
          },
]}
